Script.R
…
## Warning in rbind(names(probs), probs_f): number of columns of result is not
## a multiple of vector length (arg 1)

## Warning: 251 parsing failures.
## row # A tibble: 5 x 5 col     row                   col   expected actual expected   <int>                 <chr>      <chr>  <chr> actual 1  3505 Single-Year Ages Code an integer     NS file 2  4708 Single-Year Ages Code an integer     NS row 3  4709 Single-Year Ages Code an integer     NS col 4  4710 Single-Year Ages Code an integer     NS expected 5  4711 Single-Year Ages Code an integer     NS actual # ... with 1 more variables: file <chr>
## ... ................. ... ............................................... ........ ............................................... ...... ............................................... .... ............................................... ... ............................................... ... ............................................... ........ ............................................... ...... .......................................
## See problems(...) for more details.

dta

## # A tibble: 28,459 x 14
##    Notes  `Hispanic Origin` `Hispanic Origin Code`
##    <chr>              <chr>                  <chr>
##  1  <NA> Hispanic or Latino                 2135-2
##  2  <NA> Hispanic or Latino                 2135-2
##  3  <NA> Hispanic or Latino                 2135-2
##  4  <NA> Hispanic or Latino                 2135-2
##  5  <NA> Hispanic or Latino                 2135-2
##  6  <NA> Hispanic or Latino                 2135-2
##  7  <NA> Hispanic or Latino                 2135-2
##  8  <NA> Hispanic or Latino                 2135-2
##  9  <NA> Hispanic or Latino                 2135-2
## 10  <NA> Hispanic or Latino                 2135-2
## # ... with 28,449 more rows, and 11 more variables: Race <chr>, `Race
## #   Code` <chr>, Gender <chr>, `Gender Code` <chr>, `Single-Year
## #   Ages` <chr>, `Single-Year Ages Code` <int>, `ICD Chapter` <chr>, `ICD
## #   Chapter Code` <chr>, Deaths <int>, Population <chr>, `Crude
## #   Rate` <chr>
…
# We can see that all variables, except Deaths, are loaded in initially as characters. 
# This includes variables such as ages and age code

# The file has many rows, so using View is not recommended

# However if we look at the Notes field in notepad itself we can see 
# something interesting.
# Most rows have NA
# But at the very end the Notes field contains metadata
# For these rows the contents of the other columns are blank (NA)

dta %>% 
  filter(!is.na(Notes))

## # A tibble: 78 x 14
##                                            Notes `Hispanic Origin`
##                                            <chr>             <chr>
##  1                                           ---              <NA>
##  2 Dataset: Underlying Cause of Death, 1999-2016              <NA>
##  3                             Query Parameters:              <NA>
##  4 Title: deaths_by_ethnicity_gender_age_chapter              <NA>
##  5                        2013 Urbanization: All              <NA>
##  6                                  Autopsy: All              <NA>
##  7                                   Gender: All              <NA>
##  8                          Hispanic Origin: All              <NA>
##  9                             ICD-10 Codes: All              <NA>
## 10                           Place of Death: All              <NA>
## # ... with 68 more rows, and 12 more variables: `Hispanic Origin
## #   Code` <chr>, Race <chr>, `Race Code` <chr>, Gender <chr>, `Gender
## #   Code` <chr>, `Single-Year Ages` <chr>, `Single-Year Ages Code` <int>,
## #   `ICD Chapter` <chr>, `ICD Chapter Code` <chr>, Deaths <int>,
## #   Population <chr>, `Crude Rate` <chr>

# There are therefor 78 rows of notes at the end of the file
# We do not need/want this in the data itself 

# So we can filter to INCLUDE those rows where Notes is NA 
dta %>% 
  filter(is.na(Notes)) %>% 
  select(-Notes)

## # A tibble: 28,381 x 13
##     `Hispanic Origin` `Hispanic Origin Code`
##                 <chr>                  <chr>
##  1 Hispanic or Latino                 2135-2
##  2 Hispanic or Latino                 2135-2
##  3 Hispanic or Latino                 2135-2
##  4 Hispanic or Latino                 2135-2
##  5 Hispanic or Latino                 2135-2
##  6 Hispanic or Latino                 2135-2
##  7 Hispanic or Latino                 2135-2
##  8 Hispanic or Latino                 2135-2
##  9 Hispanic or Latino                 2135-2
## 10 Hispanic or Latino                 2135-2
## # ... with 28,371 more rows, and 11 more variables: Race <chr>, `Race
## #   Code` <chr>, Gender <chr>, `Gender Code` <chr>, `Single-Year
## #   Ages` <chr>, `Single-Year Ages Code` <int>, `ICD Chapter` <chr>, `ICD
## #   Chapter Code` <chr>, Deaths <int>, Population <chr>, `Crude
## #   Rate` <chr>
…
      hispanic != "Hispanic or Latino" & race == 'Black or African American' ~ 'black_nh',
      TRUE ~ 'other'
    )
  )  %>% 
  mutate(
    population = as.numeric(population),
    deaths = as.numeric(deaths)
    ) %>% 
  filter(!is.na(population)) %>%
  group_by(ethnicity, gender, age, icd_code) %>% 
  summarise(deaths = sum(deaths), population = sum(population)) %>% 
  ungroup() %>% 
  select(ethnicity, gender, age, icd_code, deaths, population) -> dta_tidy

## # A tibble: 28,381 x 7
##              hispanic                             race gender   age
##                 <chr>                            <chr>  <chr> <int>
##  1 Hispanic or Latino American Indian or Alaska Native Female     0
##  2 Hispanic or Latino American Indian or Alaska Native Female     0
##  3 Hispanic or Latino American Indian or Alaska Native Female     0
##  4 Hispanic or Latino American Indian or Alaska Native Female     0
##  5 Hispanic or Latino American Indian or Alaska Native Female     0
##  6 Hispanic or Latino American Indian or Alaska Native Female     0
##  7 Hispanic or Latino American Indian or Alaska Native Female     0
##  8 Hispanic or Latino American Indian or Alaska Native Female     0
##  9 Hispanic or Latino American Indian or Alaska Native Female     0
## 10 Hispanic or Latino American Indian or Alaska Native Female     0
## # ... with 28,371 more rows, and 3 more variables: icd_code <chr>,
## #   deaths <int>, population <chr>
…
